G04*
G04 #@! TF.GenerationSoftware,Altium Limited,Altium Designer,20.2.6 (244)*
G04*
G04 Layer_Physical_Order=1*
G04 Layer_Color=255*
%FSLAX25Y25*%
%MOIN*%
G70*
G04*
G04 #@! TF.SameCoordinates,428CAF35-F92A-4915-9B24-ADB53ADBC78A*
G04*
G04*
G04 #@! TF.FilePolarity,Positive*
G04*
G01*
G75*
%ADD14C,0.07874*%
%ADD15C,0.09843*%
%ADD16C,0.07874*%
D14*
X1238809Y576968D02*
X1276027D01*
X1034055Y526231D02*
Y535482D01*
X921653Y377265D02*
Y413830D01*
X1034055Y526231D01*
X831299Y299410D02*
Y413830D01*
X889419Y535482D02*
X960630D01*
X831299Y455168D02*
Y477362D01*
X567515Y300641D02*
X567698Y300458D01*
X1493324Y288189D02*
X1552080D01*
X1556316Y298836D02*
X1556693Y299213D01*
X1556316Y292425D02*
Y298836D01*
X1552080Y288189D02*
X1556316Y292425D01*
X1485450Y296063D02*
Y298836D01*
Y296063D02*
X1493324Y288189D01*
X1485450Y298836D02*
X1485827Y299213D01*
X921653Y300998D02*
Y335926D01*
X921636Y300981D02*
X921653Y300998D01*
X921636Y299589D02*
Y300981D01*
X921260Y299213D02*
X921636Y299589D01*
X831299Y477362D02*
X889419Y535482D01*
X1459449Y319179D02*
Y471648D01*
X1489105Y314567D02*
X1497261Y306411D01*
X1464061Y314567D02*
X1489105D01*
X1459449Y319179D02*
X1464061Y314567D01*
X1545259Y306411D02*
X1553414Y314567D01*
X1583071Y319179D02*
Y445731D01*
X1553414Y314567D02*
X1578458D01*
X1583071Y319179D01*
X855118Y299213D02*
X897638D01*
X1046850Y316142D02*
X1081890Y351181D01*
X1009826Y306394D02*
X1019573Y316142D01*
X1046850D01*
X1081890Y351181D02*
Y417029D01*
X1009826Y299589D02*
Y306394D01*
X1068881Y541356D02*
X1083465Y526772D01*
X1124803D02*
X1141339Y510236D01*
X1083465Y526772D02*
X1124803D01*
X1068881Y541356D02*
Y565371D01*
X1057070Y533088D02*
Y565371D01*
Y533088D02*
X1080511Y509647D01*
X1113386D01*
X1045259Y522820D02*
Y565371D01*
Y522820D02*
X1092881Y475198D01*
Y475198D02*
Y475198D01*
Y475198D02*
X1112402D01*
X1110895Y550787D02*
X1192520D01*
X1233013Y510294D02*
X1247244D01*
X1192520Y550787D02*
X1233013Y510294D01*
X1247244Y350928D02*
Y471260D01*
X1092520Y540945D02*
X1177559D01*
X1247244Y471260D01*
X1283729Y559944D02*
X1290918Y552756D01*
X1367717Y489370D02*
Y548143D01*
X1290918Y552756D02*
X1363104D01*
X1367717Y548143D01*
X1283729Y559944D02*
Y565765D01*
X1329134Y450787D02*
X1367717Y489370D01*
X1329134Y338976D02*
X1351968Y316142D01*
X1329134Y338976D02*
Y450787D01*
X1351968Y299606D02*
Y316142D01*
X1303839Y335925D02*
Y385457D01*
Y335925D02*
X1340158Y299606D01*
X771792Y300600D02*
X771833Y300641D01*
X909072Y298836D02*
X909449Y299213D01*
X909072Y295336D02*
Y298836D01*
X901532Y287795D02*
X909072Y295336D01*
X848819Y287795D02*
X901532D01*
X894094Y369992D02*
X897638Y366449D01*
Y299213D02*
Y366449D01*
X894094Y369992D02*
Y370525D01*
X858104Y388999D02*
X875620D01*
X894094Y370525D01*
X682520Y287795D02*
X837795D01*
X669674Y300641D02*
X682520Y287795D01*
X837795D02*
X842930Y292930D01*
X843684D02*
X848819Y287795D01*
X843307Y299213D02*
X843684Y298836D01*
Y292930D02*
Y298836D01*
X831299Y299410D02*
X831496Y299213D01*
X960630Y333517D02*
X986220Y307926D01*
X990833Y288386D02*
X1016647D01*
X986220Y292998D02*
Y307926D01*
Y292998D02*
X990833Y288386D01*
X1020883Y298836D02*
X1021260Y299213D01*
X1020883Y292622D02*
Y298836D01*
X1016647Y288386D02*
X1020883Y292622D01*
X1021260Y299213D02*
X1066535D01*
X1009449D02*
X1009826Y299589D01*
X997638Y299213D02*
Y316929D01*
X997638Y299213D02*
X997638Y299213D01*
X1014226Y333517D02*
X1034055D01*
X997638Y316929D02*
X1014226Y333517D01*
X1104314Y557368D02*
X1110895Y550787D01*
X1080315Y553150D02*
X1092520Y540945D01*
X1080315Y553150D02*
Y565748D01*
X1056693D02*
X1057070Y565371D01*
X1206265Y561009D02*
X1246408Y520866D01*
X1264961D02*
X1285532Y500294D01*
X1246408Y520866D02*
X1264961D01*
X1081890Y417029D02*
X1116142Y451281D01*
X1135416Y294197D02*
X1141817Y287795D01*
X1199128D02*
X1205529Y294197D01*
X1141817Y287795D02*
X1199128D01*
X1399589Y294968D02*
X1406762Y287795D01*
X1415018D02*
X1426436Y299213D01*
X1406762Y287795D02*
X1415018D01*
X1309983Y288189D02*
X1356608D01*
X1247244Y350928D02*
X1309983Y288189D01*
X1356608D02*
X1363403Y294984D01*
X1291073Y577362D02*
X1466296D01*
X1283729Y570019D02*
X1291073Y577362D01*
X1466296D02*
X1473245Y570412D01*
X1283729Y566518D02*
Y570019D01*
X1473245Y566912D02*
Y570412D01*
X1276027Y576968D02*
X1282976Y570019D01*
X1232998Y571158D02*
X1238809Y576968D01*
X1282976Y566518D02*
Y570019D01*
X1028234Y576575D02*
X1037907D01*
X1021636Y566125D02*
Y569977D01*
X1044505Y566125D02*
Y569977D01*
X1021636D02*
X1028234Y576575D01*
X1044505Y566125D02*
X1045259Y565371D01*
X1037907Y576575D02*
X1044505Y569977D01*
X1303839Y385457D02*
Y387945D01*
X1285532Y500294D02*
X1341341D01*
X1430605Y500492D02*
X1459449Y471648D01*
X1497261Y299589D02*
X1497638Y299213D01*
X1497261Y299589D02*
Y306411D01*
X1474586Y531594D02*
X1485433Y542440D01*
X1528704Y500098D02*
X1583071Y445731D01*
X1545259Y299589D02*
Y306411D01*
X1544882Y299213D02*
X1545259Y299589D01*
X1556693Y299213D02*
X1586614D01*
X1608104Y320702D01*
Y409942D01*
X1528704Y316689D02*
X1541644Y329629D01*
X1569488D01*
X1515371Y316689D02*
Y317307D01*
X1503048Y329629D02*
X1515371Y317307D01*
X1474586Y329629D02*
X1503048D01*
X1533071Y299213D02*
Y299745D01*
X1528740Y304076D02*
X1533071Y299745D01*
X1528740Y304076D02*
Y308268D01*
X1528704Y308304D02*
Y316689D01*
Y308304D02*
X1528740Y308268D01*
X1509449Y299213D02*
Y299745D01*
X1515354Y305651D01*
Y307480D01*
X1515371Y307497D02*
Y316689D01*
X1515354Y307480D02*
X1515371Y307497D01*
X1485433Y542440D02*
Y566535D01*
X1569488Y530512D02*
Y531594D01*
X1558661Y519685D02*
X1569488Y530512D01*
X1424409Y519685D02*
X1558661D01*
X1194094Y303543D02*
Y378249D01*
Y299606D02*
Y303543D01*
X1151463Y311417D02*
X1186220D01*
X1194094Y303543D01*
X1162402Y409942D02*
X1194094Y378249D01*
X1146850Y299606D02*
Y306805D01*
X1151463Y311417D01*
X1146850Y299606D02*
X1146850Y299606D01*
X1066535Y299213D02*
X1116142Y348819D01*
X1159449Y412895D02*
X1162402Y409942D01*
X1363403Y299230D02*
X1369062Y304889D01*
X1363403Y294984D02*
Y299230D01*
X1135039Y299606D02*
X1135416Y299230D01*
Y294197D02*
Y299230D01*
X1205529Y294197D02*
Y299230D01*
X1205906Y299606D01*
X1158661D02*
X1182283D01*
X1205906D02*
Y384710D01*
X1180674Y409942D02*
X1205906Y384710D01*
X1116142Y390158D02*
Y409942D01*
X1115848Y410236D02*
X1116142Y409942D01*
X1092973Y410236D02*
X1115848D01*
X1116339Y451478D02*
Y471261D01*
X1116142Y451281D02*
X1116339Y451478D01*
X1141339Y447344D02*
Y510236D01*
X1021260Y565748D02*
X1021636Y566125D01*
X1283353Y566142D02*
X1283729Y565765D01*
X1281841Y409942D02*
X1303839Y387945D01*
X1382874Y304666D02*
Y319395D01*
X1341341Y360928D02*
X1382874Y319395D01*
X1205888Y565765D02*
X1206265Y565388D01*
Y561009D02*
Y565388D01*
X1372047Y408832D02*
Y409942D01*
Y408832D02*
X1395768Y385111D01*
X1395768D01*
X1411024Y299606D02*
Y369855D01*
X1395768Y385111D02*
X1411024Y369855D01*
X1369062Y304889D02*
Y316689D01*
X1399213Y299606D02*
X1399589Y299230D01*
Y294968D02*
Y299230D01*
X1426436Y299213D02*
X1426968D01*
X1382874Y304666D02*
X1387402Y300139D01*
Y299606D02*
Y300139D01*
X1426968Y299213D02*
Y409942D01*
X1103937Y565748D02*
X1104314Y565371D01*
Y557368D02*
Y565371D01*
X1068504Y565748D02*
X1068881Y565371D01*
X1283353Y566142D02*
X1283729Y566518D01*
X1282976D02*
X1283353Y566142D01*
X1232998Y566518D02*
Y571158D01*
X1178937Y409942D02*
X1180674D01*
X1141339Y412895D02*
X1159449D01*
X1608104Y409942D02*
X1632935Y385111D01*
X1634125D01*
X1417272Y500492D02*
X1430605D01*
X1515371Y500098D02*
X1528704D01*
X1377953Y566142D02*
X1424409Y519685D01*
X1295164Y566142D02*
X1377953D01*
X1473245Y566912D02*
X1473622Y566535D01*
X1115748Y565748D02*
X1134646D01*
X1175984D02*
X1194060D01*
X1194077Y565765D01*
X1528704Y541437D02*
Y566106D01*
X1528740Y566142D01*
X1515354D02*
X1515371Y566125D01*
Y541437D02*
Y566125D01*
X1417272Y541831D02*
Y549416D01*
X1417340Y549484D01*
Y565765D01*
X1417717Y566142D01*
X1430605Y566038D02*
X1430709Y566142D01*
X1430605Y541831D02*
Y566038D01*
X1232621Y566142D02*
X1232998Y566518D01*
X1256243Y566142D02*
X1256271Y566114D01*
Y532705D02*
Y566114D01*
Y532705D02*
X1256299Y532677D01*
X1112402Y475198D02*
X1116339Y471261D01*
X1113386Y509647D02*
X1116339Y512599D01*
D15*
X1283353Y566142D02*
D03*
X1295164D02*
D03*
X1271542D02*
D03*
X1244432D02*
D03*
X1232621D02*
D03*
X1256243D02*
D03*
X1205888Y565765D02*
D03*
X1194077D02*
D03*
X1217700D02*
D03*
X532677Y568110D02*
D03*
X550787Y300641D02*
D03*
X771636Y568358D02*
D03*
X771833Y300641D02*
D03*
X669477Y568358D02*
D03*
X669674Y300641D02*
D03*
X567318Y568358D02*
D03*
X567515Y300641D02*
D03*
X1395665Y532677D02*
D03*
X1256299D02*
D03*
X894094Y498474D02*
D03*
Y370525D02*
D03*
X1092126Y565748D02*
D03*
X1044882D02*
D03*
X1056693D02*
D03*
X1103937D02*
D03*
X1033071D02*
D03*
X1080315D02*
D03*
X1115748D02*
D03*
X1068504D02*
D03*
X1021260D02*
D03*
X1540551Y566142D02*
D03*
X1528740D02*
D03*
X1503543D02*
D03*
X1515354D02*
D03*
X1442520D02*
D03*
X1430709D02*
D03*
X1405906D02*
D03*
X1417717D02*
D03*
X1426968Y299213D02*
D03*
X1533071D02*
D03*
X1485827D02*
D03*
X1497638D02*
D03*
X1556693D02*
D03*
X1509449D02*
D03*
X1544882D02*
D03*
X1387402Y299606D02*
D03*
X1340158D02*
D03*
X1351968D02*
D03*
X1411024D02*
D03*
X1363780D02*
D03*
X1399213D02*
D03*
X1158661D02*
D03*
X1205906D02*
D03*
X1194094D02*
D03*
X1135039D02*
D03*
X1182283D02*
D03*
X1146850D02*
D03*
X974016Y299213D02*
D03*
X1021260D02*
D03*
X1009449D02*
D03*
X950394D02*
D03*
X997638D02*
D03*
X962205D02*
D03*
X1473622Y566535D02*
D03*
X1485433D02*
D03*
X1461811D02*
D03*
X921260Y299213D02*
D03*
X897638D02*
D03*
X909449D02*
D03*
X843307D02*
D03*
X855118D02*
D03*
X831496D02*
D03*
X534252Y300641D02*
D03*
D16*
X831299Y413830D02*
D03*
Y455168D02*
D03*
X858104Y388999D02*
D03*
Y479999D02*
D03*
X1634125Y385111D02*
D03*
Y476111D02*
D03*
X1205505Y385111D02*
D03*
Y476111D02*
D03*
X1303839Y385457D02*
D03*
Y476457D02*
D03*
X1395768Y385111D02*
D03*
Y476111D02*
D03*
X1341341Y500294D02*
D03*
Y360928D02*
D03*
X1247244Y510294D02*
D03*
Y350928D02*
D03*
X1474586Y531594D02*
D03*
Y329629D02*
D03*
X1569488Y531594D02*
D03*
Y329629D02*
D03*
X1034055Y535482D02*
D03*
Y333517D02*
D03*
X960630Y535482D02*
D03*
Y333517D02*
D03*
X1528704Y541437D02*
D03*
Y500098D02*
D03*
X1515371Y541437D02*
D03*
Y500098D02*
D03*
X1430605Y541831D02*
D03*
Y500492D02*
D03*
X1417272Y541831D02*
D03*
Y500492D02*
D03*
X1608104Y451281D02*
D03*
Y409942D02*
D03*
X1162402Y451281D02*
D03*
Y409942D02*
D03*
X1515371Y358028D02*
D03*
Y316689D02*
D03*
X1528704D02*
D03*
Y358028D02*
D03*
X1178937Y451281D02*
D03*
Y409942D02*
D03*
X1281841Y451281D02*
D03*
Y409942D02*
D03*
X1369062Y358028D02*
D03*
Y316689D02*
D03*
X1426968Y451281D02*
D03*
Y409942D02*
D03*
X1382874Y316689D02*
D03*
Y358028D02*
D03*
X1372047Y451281D02*
D03*
Y409942D02*
D03*
X1116339Y471261D02*
D03*
Y512599D02*
D03*
X1175984Y565748D02*
D03*
X1134646D02*
D03*
X1116142Y409942D02*
D03*
Y451281D02*
D03*
Y390158D02*
D03*
Y348819D02*
D03*
X1092973Y451575D02*
D03*
Y410236D02*
D03*
X997638Y358268D02*
D03*
Y316929D02*
D03*
X921653Y455168D02*
D03*
Y413830D02*
D03*
X921850Y535433D02*
D03*
Y494095D02*
D03*
X921653Y335926D02*
D03*
Y377265D02*
D03*
X1141339Y447344D02*
D03*
Y412895D02*
D03*
X748110Y300600D02*
D03*
X691024D02*
D03*
X645698Y300458D02*
D03*
X588611D02*
D03*
X1092881Y509647D02*
D03*
Y475198D02*
D03*
M02*
